#
# Topology file: generated on Tue Dec 13 14:26:25 2016
#
# Initiated from node e41d2d0300b92fa0 port e41d2d0300b92fa1

vendid=0x2c9
devid=0xc738
sysimgguid=0x2c90300704df0
switchguid=0x2c90300704df0(2c90300704df0)
Switch	32 "S-0002c90300704df0"		# "SwitchX -  Mellanox Technologies" base port 0 lid 78 lmc 0
[9]	"S-e41d2d03002238c0"[27]		# "SwitchIB Mellanox Technologies" lid 95 4xQDR
[17]	"H-f45214030070fde0"[1](f45214030070fde1) 		# "localhost mlx4_0" lid 90 4xFDR10
[18]	"H-f452140300710130"[1](f452140300710131) 		# "localhost mlx4_0" lid 92 4xFDR10
[19]	"H-f45214030070fdd0"[1](f45214030070fdd1) 		# "localhost mlx4_0" lid 81 4xFDR10
[20]	"H-f452140300710100"[1](f452140300710101) 		# "localhost mlx4_0" lid 93 4xFDR10

vendid=0x2c9
devid=0xcb20
sysimgguid=0xe41d2d0300b13660
switchguid=0xe41d2d0300b13660(e41d2d0300b13660)
Switch	36 "S-e41d2d0300b13660"		# "MF0;rack1-switch2:MSB7700/U1" enhanced port 0 lid 91 lmc 0
[1]	"S-e41d2d0300bfaf60"[28]		# "SwitchIB Mellanox Technologies" lid 4 4xEDR
[2]	"S-e41d2d0300bfaf60"[25]		# "SwitchIB Mellanox Technologies" lid 4 4xEDR
[3]	"S-e41d2d0300bfaf60"[30]		# "SwitchIB Mellanox Technologies" lid 4 4xEDR
[4]	"S-e41d2d0300bfaf60"[29]		# "SwitchIB Mellanox Technologies" lid 4 4xEDR
[5]	"S-e41d2d0300bfaf60"[26]		# "SwitchIB Mellanox Technologies" lid 4 4xEDR
[6]	"S-e41d2d0300bfaf60"[27]		# "SwitchIB Mellanox Technologies" lid 4 4xEDR
[7]	"S-e41d2d0300bfb980"[28]		# "SwitchIB Mellanox Technologies" lid 5 4xEDR
[8]	"S-e41d2d0300bfb980"[30]		# "SwitchIB Mellanox Technologies" lid 5 4xEDR
[9]	"S-e41d2d0300bfb980"[25]		# "SwitchIB Mellanox Technologies" lid 5 4xEDR
[10]	"S-e41d2d0300bfb980"[27]		# "SwitchIB Mellanox Technologies" lid 5 4xEDR
[11]	"S-e41d2d0300bfb980"[26]		# "SwitchIB Mellanox Technologies" lid 5 4xEDR
[12]	"S-e41d2d0300bfb980"[29]		# "SwitchIB Mellanox Technologies" lid 5 4xEDR
[13]	"S-e41d2d0300bfb960"[26]		# "SwitchIB Mellanox Technologies" lid 7 4xEDR
[14]	"S-e41d2d0300bfb960"[29]		# "SwitchIB Mellanox Technologies" lid 7 4xEDR
[15]	"S-e41d2d0300bfb960"[27]		# "SwitchIB Mellanox Technologies" lid 7 4xEDR
[16]	"S-e41d2d0300bfb960"[30]		# "SwitchIB Mellanox Technologies" lid 7 4xEDR
[17]	"S-e41d2d0300bfb960"[25]		# "SwitchIB Mellanox Technologies" lid 7 4xEDR
[18]	"S-e41d2d0300bfb960"[28]		# "SwitchIB Mellanox Technologies" lid 7 4xEDR
[19]	"H-e41d2d030062113e"[1](e41d2d030062113e) 		# "node033 HCA-1" lid 15 4xEDR
[20]	"H-7cfe900300584608"[1](7cfe900300584608) 		# "node029 HCA-1" lid 9 4xEDR
[21]	"H-e41d2d0300675c66"[1](e41d2d0300675c66) 		# "node036 HCA-1" lid 23 4xEDR
[22]	"H-e41d2d030067b7dc"[1](e41d2d030067b7dc) 		# "node035 HCA-1" lid 61 4xEDR
[23]	"H-e41d2d030067b7c8"[1](e41d2d030067b7c8) 		# "node034 HCA-1" lid 59 4xEDR
[24]	"H-7cfe9003005843f0"[1](7cfe9003005843f0) 		# "node030 HCA-1" lid 64 4xEDR
[25]	"H-7cfe900300584590"[1](7cfe900300584590) 		# "node032 HCA-2" lid 87 4xEDR
[26]	"H-7cfe9003005845a8"[1](7cfe9003005845a8) 		# "node031 HCA-1" lid 48 4xEDR
[27]	"H-7cfe900300584344"[1](7cfe900300584344) 		# "node028 HCA-1" lid 14 4xEDR
[28]	"H-7cfe900300584594"[1](7cfe900300584594) 		# "node025 HCA-2" lid 18 4xEDR
[29]	"H-7cfe9003005843dc"[1](7cfe9003005843dc) 		# "node027 HCA-1" lid 60 4xEDR
[30]	"H-7cfe90030058435c"[1](7cfe90030058435c) 		# "node017 HCA-1" lid 20 4xEDR
[31]	"H-7cfe9003005845a4"[1](7cfe9003005845a4) 		# "node021 HCA-1" lid 75 4xEDR
[32]	"H-7cfe9003005845f8"[1](7cfe9003005845f8) 		# "node026 HCA-1" lid 28 4xEDR
[33]	"H-7cfe900300583e9c"[1](7cfe900300583e9c) 		# "node023 HCA-1" lid 42 4xEDR
[34]	"H-7cfe900300583f74"[1](7cfe900300583f74) 		# "node024 HCA-1" lid 25 4xEDR
[35]	"H-7cfe9003005845ac"[1](7cfe9003005845ac) 		# "node018 HCA-2" lid 2 4xEDR
[36]	"H-7cfe9003005845e4"[1](7cfe9003005845e4) 		# "node022 HCA-1" lid 62 4xEDR

vendid=0x2c9
devid=0xcb20
sysimgguid=0xe41d2d0300bfaf40
switchguid=0xe41d2d0300bfaf40(e41d2d0300bfaf40)
Switch	36 "S-e41d2d0300bfaf40"		# "SwitchIB Mellanox Technologies" base port 0 lid 10 lmc 0
[1]	"S-e41d2d0300bfaf60"[20]		# "SwitchIB Mellanox Technologies" lid 4 4xEDR
[2]	"S-e41d2d0300bfaf60"[23]		# "SwitchIB Mellanox Technologies" lid 4 4xEDR
[3]	"S-e41d2d0300bfaf60"[22]		# "SwitchIB Mellanox Technologies" lid 4 4xEDR
[4]	"S-e41d2d0300bfaf60"[19]		# "SwitchIB Mellanox Technologies" lid 4 4xEDR
[5]	"S-e41d2d0300bfaf60"[21]		# "SwitchIB Mellanox Technologies" lid 4 4xEDR
[6]	"S-e41d2d0300bfaf60"[24]		# "SwitchIB Mellanox Technologies" lid 4 4xEDR
[7]	"S-e41d2d0300bfb980"[20]		# "SwitchIB Mellanox Technologies" lid 5 4xEDR
[8]	"S-e41d2d0300bfb980"[21]		# "SwitchIB Mellanox Technologies" lid 5 4xEDR
[9]	"S-e41d2d0300bfb980"[22]		# "SwitchIB Mellanox Technologies" lid 5 4xEDR
[10]	"S-e41d2d0300bfb980"[24]		# "SwitchIB Mellanox Technologies" lid 5 4xEDR
[11]	"S-e41d2d0300bfb980"[19]		# "SwitchIB Mellanox Technologies" lid 5 4xEDR
[12]	"S-e41d2d0300bfb980"[23]		# "SwitchIB Mellanox Technologies" lid 5 4xEDR
[13]	"S-e41d2d0300bfb960"[24]		# "SwitchIB Mellanox Technologies" lid 7 4xEDR
[14]	"S-e41d2d0300bfb960"[21]		# "SwitchIB Mellanox Technologies" lid 7 4xEDR
[15]	"S-e41d2d0300bfb960"[23]		# "SwitchIB Mellanox Technologies" lid 7 4xEDR
[16]	"S-e41d2d0300bfb960"[22]		# "SwitchIB Mellanox Technologies" lid 7 4xEDR
[17]	"S-e41d2d0300bfb960"[19]		# "SwitchIB Mellanox Technologies" lid 7 4xEDR
[18]	"S-e41d2d0300bfb960"[20]		# "SwitchIB Mellanox Technologies" lid 7 4xEDR
[19]	"H-7cfe9003005845fc"[1](7cfe9003005845fc) 		# "node002 HCA-1" lid 47 4xEDR
[20]	"H-7cfe900300584600"[1](7cfe900300584600) 		# "node003 HCA-1" lid 35 4xEDR
[21]	"H-7cfe90030058459c"[1](7cfe90030058459c) 		# "node001 HCA-1" lid 74 4xEDR
[22]	"H-7cfe9003005842b4"[1](7cfe9003005842b4) 		# "node004 HCA-1" lid 38 4xEDR
[23]	"H-7cfe900300584588"[1](7cfe900300584588) 		# "node006 HCA-1" lid 31 4xEDR
[24]	"H-7cfe9003005845c4"[1](7cfe9003005845c4) 		# "node007 HCA-1" lid 40 4xEDR
[25]	"H-7cfe900300584598"[1](7cfe900300584598) 		# "node005 HCA-1" lid 3 4xEDR
[26]	"H-7cfe9003005845d0"[1](7cfe9003005845d0) 		# "node008 HCA-1" lid 34 4xEDR
[27]	"H-7cfe9003005843e8"[1](7cfe9003005843e8) 		# "node009 HCA-1" lid 33 4xEDR
[28]	"H-7cfe900300584374"[1](7cfe900300584374) 		# "node011 HCA-1" lid 39 4xEDR
[29]	"H-7cfe9003005842e0"[1](7cfe9003005842e0) 		# "node010 HCA-1" lid 41 4xEDR
[30]	"H-7cfe900300583fa8"[1](7cfe900300583fa8) 		# "node012 HCA-1" lid 36 4xEDR
[31]	"H-7cfe90030058425c"[1](7cfe90030058425c) 		# "node013 HCA-1" lid 43 4xEDR
[32]	"H-7cfe900300584378"[1](7cfe900300584378) 		# "node016 HCA-2" lid 89 4xEDR
[33]	"H-7cfe900300584364"[1](7cfe900300584364) 		# "node015 HCA-1" lid 22 4xEDR
[34]	"H-7cfe900300583e74"[1](7cfe900300583e74) 		# "node014 HCA-1" lid 37 4xEDR
[35]	"H-7cfe90030058422c"[1](7cfe90030058422c) 		# "node019 HCA-1" lid 13 4xEDR
[36]	"H-7cfe9003005843d8"[1](7cfe9003005843d8) 		# "node020 HCA-1" lid 52 4xEDR

vendid=0x2c9
devid=0xcb20
sysimgguid=0x7cfe90030095ff10
switchguid=0x7cfe90030095ff10(7cfe90030095ff10)
Switch	36 "S-7cfe90030095ff10"		# "MF0;hpc-sb7700-1:MSB7700/U1" enhanced port 0 lid 29 lmc 0
[2]	"S-e41d2d0300bfaf60"[17]		# "SwitchIB Mellanox Technologies" lid 4 4xFDR
[4]	"S-e41d2d0300bfaf60"[13]		# "SwitchIB Mellanox Technologies" lid 4 4xFDR
[6]	"S-e41d2d0300bfaf60"[18]		# "SwitchIB Mellanox Technologies" lid 4 4xFDR
[8]	"S-e41d2d0300bfaf60"[15]		# "SwitchIB Mellanox Technologies" lid 4 4xFDR
[14]	"H-248a0703001202f8"[1](248a0703001202f8) 		# "localhost mlx5_0" lid 85 4xFDR
[16]	"H-248a07030011c430"[1](248a07030011c430) 		# "localhost mlx5_0" lid 84 4xFDR
[18]	"H-248a0703001202f4"[1](248a0703001202f4) 		# "localhost mlx5_0" lid 83 4xFDR
[25]	"H-e41d2d0300676aee"[1](e41d2d0300676aee) 		# "ieel3-edr-oss2 HCA-1" lid 73 4xEDR
[27]	"H-e41d2d0300ffa4c6"[1](e41d2d0300ffa4c6) 		# "ieel3-edr-oss1 HCA-1" lid 70 4xEDR
[29]	"H-e41d2d0300621152"[1](e41d2d0300621152) 		# "ieel3-edr-mds1 HCA-1" lid 71 4xEDR
[31]	"H-7cfe900300584204"[1](7cfe900300584204) 		# "ieel3-edr-mds2 HCA-1" lid 72 4xEDR

vendid=0x2c9
devid=0xcb20
sysimgguid=0x7cfe900300198b00
switchguid=0x7cfe900300198b00(7cfe900300198b00)
Switch	36 "S-7cfe900300198b00"		# "MF0;rack2-switch1:MSB7700/U1" enhanced port 0 lid 45 lmc 0
[1]	"H-7cfe900300268998"[1](7cfe900300268998) 		# "node071 HCA-1" lid 122 4xEDR
[2]	"H-7cfe9003002687fc"[1](7cfe9003002687fc) 		# "node080 HCA-1" lid 118 4xEDR
[3]	"H-7cfe900300268810"[1](7cfe900300268810) 		# "node076 HCA-1" lid 114 4xEDR
[4]	"H-7cfe900300268a38"[1](7cfe900300268a38) 		# "node072 HCA-1" lid 123 4xEDR
[5]	"H-7cfe9003002687f8"[1](7cfe9003002687f8) 		# "node079 HCA-1" lid 119 4xEDR
[6]	"H-7cfe90030026885c"[1](7cfe90030026885c) 		# "node075 HCA-1" lid 121 4xEDR
[7]	"H-7cfe9003002691d8"[1](7cfe9003002691d8) 		# "node084 HCA-1" lid 124 4xEDR
[8]	"H-7cfe9003002690b4"[1](7cfe9003002690b4) 		# "node083 HCA-1" lid 32 4xEDR
[10]	"H-7cfe900300269078"[1](7cfe900300269078) 		# "node068 HCA-1" lid 109 4xEDR
[11]	"H-7cfe9003002689b8"[1](7cfe9003002689b8) 		# "node064 HCA-1" lid 106 4xEDR
[12]	"H-7cfe9003002689a4"[1](7cfe9003002689a4) 		# "node063 HCA-1" lid 110 4xEDR
[13]	"H-7cfe900300268828"[1](7cfe900300268828) 		# "node060 HCA-1" lid 107 4xEDR
[15]	"H-e41d2d0300ffa3fa"[1](e41d2d0300ffa3fa) 		# "node055 HCA-1" lid 68 4xEDR
[16]	"H-e41d2d0300ffa4b2"[1](e41d2d0300ffa4b2) 		# "node056 HCA-1" lid 51 4xEDR
[17]	"H-e41d2d0300ffa46e"[1](e41d2d0300ffa46e) 		# "node052 HCA-1" lid 24 4xEDR
[18]	"H-e41d2d0300ffa582"[1](e41d2d0300ffa582) 		# "node051 HCA-1" lid 27 4xEDR
[19]	"S-e41d2d0300bfb960"[10]		# "SwitchIB Mellanox Technologies" lid 7 4xEDR
[20]	"S-e41d2d0300bfb960"[11]		# "SwitchIB Mellanox Technologies" lid 7 4xEDR
[21]	"S-e41d2d0300bfb960"[12]		# "SwitchIB Mellanox Technologies" lid 7 4xEDR
[22]	"S-e41d2d0300bfb960"[9]		# "SwitchIB Mellanox Technologies" lid 7 4xEDR
[23]	"S-e41d2d0300bfb960"[7]		# "SwitchIB Mellanox Technologies" lid 7 4xEDR
[24]	"S-e41d2d0300bfb960"[8]		# "SwitchIB Mellanox Technologies" lid 7 4xEDR
[25]	"S-e41d2d0300bfaf60"[12]		# "SwitchIB Mellanox Technologies" lid 4 4xEDR
[26]	"S-e41d2d0300bfaf60"[11]		# "SwitchIB Mellanox Technologies" lid 4 4xEDR
[27]	"S-e41d2d0300bfaf60"[9]		# "SwitchIB Mellanox Technologies" lid 4 4xEDR
[28]	"S-e41d2d0300bfaf60"[7]		# "SwitchIB Mellanox Technologies" lid 4 4xEDR
[29]	"S-e41d2d0300bfaf60"[8]		# "SwitchIB Mellanox Technologies" lid 4 4xEDR
[30]	"S-e41d2d0300bfaf60"[10]		# "SwitchIB Mellanox Technologies" lid 4 4xEDR
[31]	"S-e41d2d0300bfb980"[10]		# "SwitchIB Mellanox Technologies" lid 5 4xEDR
[32]	"S-e41d2d0300bfb980"[12]		# "SwitchIB Mellanox Technologies" lid 5 4xEDR
[33]	"S-e41d2d0300bfb980"[8]		# "SwitchIB Mellanox Technologies" lid 5 4xEDR
[34]	"S-e41d2d0300bfb980"[7]		# "SwitchIB Mellanox Technologies" lid 5 4xEDR
[35]	"S-e41d2d0300bfb980"[9]		# "SwitchIB Mellanox Technologies" lid 5 4xEDR
[36]	"S-e41d2d0300bfb980"[11]		# "SwitchIB Mellanox Technologies" lid 5 4xEDR

vendid=0x2c9
devid=0xcb20
sysimgguid=0x7cfe900300198d20
switchguid=0x7cfe900300198d20(7cfe900300198d20)
Switch	36 "S-7cfe900300198d20"		# "MF0;rack2-switch2:MSB7700/U1" enhanced port 0 lid 44 lmc 0
[1]	"S-e41d2d0300bfaf60"[6]		# "SwitchIB Mellanox Technologies" lid 4 4xEDR
[2]	"S-e41d2d0300bfaf60"[3]		# "SwitchIB Mellanox Technologies" lid 4 4xEDR
[3]	"S-e41d2d0300bfaf60"[2]		# "SwitchIB Mellanox Technologies" lid 4 4xEDR
[4]	"S-e41d2d0300bfaf60"[5]		# "SwitchIB Mellanox Technologies" lid 4 4xEDR
[5]	"S-e41d2d0300bfb980"[4]		# "SwitchIB Mellanox Technologies" lid 5 4xEDR
[6]	"S-e41d2d0300bfaf60"[1]		# "SwitchIB Mellanox Technologies" lid 4 4xEDR
[7]	"S-e41d2d0300bfb960"[1]		# "SwitchIB Mellanox Technologies" lid 7 4xEDR
[8]	"S-e41d2d0300bfb960"[2]		# "SwitchIB Mellanox Technologies" lid 7 4xEDR
[9]	"S-e41d2d0300bfb960"[4]		# "SwitchIB Mellanox Technologies" lid 7 4xEDR
[10]	"S-e41d2d0300bfb980"[3]		# "SwitchIB Mellanox Technologies" lid 5 4xEDR
[11]	"S-e41d2d0300bfb960"[3]		# "SwitchIB Mellanox Technologies" lid 7 4xEDR
[12]	"S-e41d2d0300bfb960"[5]		# "SwitchIB Mellanox Technologies" lid 7 4xEDR
[13]	"S-e41d2d0300bfaf60"[4]		# "SwitchIB Mellanox Technologies" lid 4 4xEDR
[14]	"S-e41d2d0300bfb980"[2]		# "SwitchIB Mellanox Technologies" lid 5 4xEDR
[15]	"S-e41d2d0300bfb960"[6]		# "SwitchIB Mellanox Technologies" lid 7 4xEDR
[16]	"S-e41d2d0300bfb980"[1]		# "SwitchIB Mellanox Technologies" lid 5 4xEDR
[17]	"S-e41d2d0300bfb980"[6]		# "SwitchIB Mellanox Technologies" lid 5 4xEDR
[18]	"S-e41d2d0300bfb980"[5]		# "SwitchIB Mellanox Technologies" lid 5 4xEDR
[19]	"H-7cfe900300268820"[1](7cfe900300268820) 		# "node082 HCA-1" lid 125 4xEDR
[21]	"H-7cfe900300268824"[1](7cfe900300268824) 		# "node073 HCA-1" lid 117 4xEDR
[22]	"H-7cfe9003002688b8"[1](7cfe9003002688b8) 		# "node074 HCA-1" lid 115 4xEDR
[23]	"H-7cfe9003002688a8"[1](7cfe9003002688a8) 		# "node061 HCA-1" lid 108 4xEDR
[24]	"H-7cfe900300268800"[1](7cfe900300268800) 		# "node077 HCA-1" lid 120 4xEDR
[25]	"H-7cfe900300268868"[1](7cfe900300268868) 		# "node078 HCA-1" lid 116 4xEDR
[26]	"H-7cfe90030026881c"[1](7cfe90030026881c) 		# "node062 HCA-1" lid 102 4xEDR
[27]	"H-7cfe9003002689b4"[1](7cfe9003002689b4) 		# "node069 HCA-1" lid 113 4xEDR
[28]	"H-7cfe900300269198"[1](7cfe900300269198) 		# "node065 HCA-1" lid 103 4xEDR
[29]	"H-7cfe90030026917c"[1](7cfe90030026917c) 		# "node066 HCA-1" lid 104 4xEDR
[30]	"H-7cfe900300268990"[1](7cfe900300268990) 		# "node070 HCA-1" lid 112 4xEDR
[31]	"H-7cfe900300268858"[1](7cfe900300268858) 		# "node057 HCA-1" lid 100 4xEDR
[32]	"H-7cfe9003002689ac"[1](7cfe9003002689ac) 		# "node058 HCA-1" lid 101 4xEDR
[33]	"H-e41d2d0300ffa482"[1](e41d2d0300ffa482) 		# "node053 HCA-1" lid 26 4xEDR
[34]	"H-e41d2d0300ffa4c2"[1](e41d2d0300ffa4c2) 		# "node054 HCA-1" lid 56 4xEDR
[35]	"H-e41d2d0300ffa45e"[1](e41d2d0300ffa45e) 		# "node049 HCA-1" lid 21 4xEDR
[36]	"H-e41d2d0300ffa3f6"[1](e41d2d0300ffa3f6) 		# "node050 HCA-1" lid 66 4xEDR

vendid=0x2c9
devid=0xcb20
sysimgguid=0xe41d2d03002238c0
switchguid=0xe41d2d03002238c0(e41d2d03002238c0)
Switch	36 "S-e41d2d03002238c0"		# "SwitchIB Mellanox Technologies" base port 0 lid 95 lmc 0
[17]	"H-e41d2d0300ffa49a"[1](e41d2d0300ffa49a) 		# "ieel-oss1 HCA-1" lid 55 4xFDR
[19]	"H-e41d2d0300ffa456"[1](e41d2d0300ffa456) 		# "ieel-mds2 HCA-1" lid 54 4xFDR
[21]	"H-e41d2d0300ffa576"[1](e41d2d0300ffa576) 		# "ieel-oss2 HCA-1" lid 57 4xFDR
[23]	"H-e41d2d0300ffa53e"[1](e41d2d0300ffa53e) 		# "ieel-mds1 HCA-1" lid 49 4xFDR
[27]	"S-0002c90300704df0"[9]		# "SwitchX -  Mellanox Technologies" lid 78 4xQDR
[33]	"S-e41d2d0300b59300"[22]		# "MF0;rack1-switch1:MSB7700/U1" lid 1 4xEDR
[35]	"S-e41d2d0300b59300"[20]		# "MF0;rack1-switch1:MSB7700/U1" lid 1 4xEDR

vendid=0x2c9
devid=0xcb20
sysimgguid=0xe41d2d0300bfb960
switchguid=0xe41d2d0300bfb960(e41d2d0300bfb960)
Switch	36 "S-e41d2d0300bfb960"		# "SwitchIB Mellanox Technologies" base port 0 lid 7 lmc 0
[1]	"S-7cfe900300198d20"[7]		# "MF0;rack2-switch2:MSB7700/U1" lid 44 4xEDR
[2]	"S-7cfe900300198d20"[8]		# "MF0;rack2-switch2:MSB7700/U1" lid 44 4xEDR
[3]	"S-7cfe900300198d20"[11]		# "MF0;rack2-switch2:MSB7700/U1" lid 44 4xEDR
[4]	"S-7cfe900300198d20"[9]		# "MF0;rack2-switch2:MSB7700/U1" lid 44 4xEDR
[5]	"S-7cfe900300198d20"[12]		# "MF0;rack2-switch2:MSB7700/U1" lid 44 4xEDR
[6]	"S-7cfe900300198d20"[15]		# "MF0;rack2-switch2:MSB7700/U1" lid 44 4xEDR
[7]	"S-7cfe900300198b00"[23]		# "MF0;rack2-switch1:MSB7700/U1" lid 45 4xEDR
[8]	"S-7cfe900300198b00"[24]		# "MF0;rack2-switch1:MSB7700/U1" lid 45 4xEDR
[9]	"S-7cfe900300198b00"[22]		# "MF0;rack2-switch1:MSB7700/U1" lid 45 4xEDR
[10]	"S-7cfe900300198b00"[19]		# "MF0;rack2-switch1:MSB7700/U1" lid 45 4xEDR
[11]	"S-7cfe900300198b00"[20]		# "MF0;rack2-switch1:MSB7700/U1" lid 45 4xEDR
[12]	"S-7cfe900300198b00"[21]		# "MF0;rack2-switch1:MSB7700/U1" lid 45 4xEDR
[19]	"S-e41d2d0300bfaf40"[17]		# "SwitchIB Mellanox Technologies" lid 10 4xEDR
[20]	"S-e41d2d0300bfaf40"[18]		# "SwitchIB Mellanox Technologies" lid 10 4xEDR
[21]	"S-e41d2d0300bfaf40"[14]		# "SwitchIB Mellanox Technologies" lid 10 4xEDR
[22]	"S-e41d2d0300bfaf40"[16]		# "SwitchIB Mellanox Technologies" lid 10 4xEDR
[23]	"S-e41d2d0300bfaf40"[15]		# "SwitchIB Mellanox Technologies" lid 10 4xEDR
[24]	"S-e41d2d0300bfaf40"[13]		# "SwitchIB Mellanox Technologies" lid 10 4xEDR
[25]	"S-e41d2d0300b13660"[17]		# "MF0;rack1-switch2:MSB7700/U1" lid 91 4xEDR
[26]	"S-e41d2d0300b13660"[13]		# "MF0;rack1-switch2:MSB7700/U1" lid 91 4xEDR
[27]	"S-e41d2d0300b13660"[15]		# "MF0;rack1-switch2:MSB7700/U1" lid 91 4xEDR
[28]	"S-e41d2d0300b13660"[18]		# "MF0;rack1-switch2:MSB7700/U1" lid 91 4xEDR
[29]	"S-e41d2d0300b13660"[14]		# "MF0;rack1-switch2:MSB7700/U1" lid 91 4xEDR
[30]	"S-e41d2d0300b13660"[16]		# "MF0;rack1-switch2:MSB7700/U1" lid 91 4xEDR
[31]	"S-e41d2d0300b59300"[14]		# "MF0;rack1-switch1:MSB7700/U1" lid 1 4xEDR
[32]	"S-e41d2d0300b59300"[15]		# "MF0;rack1-switch1:MSB7700/U1" lid 1 4xEDR
[33]	"S-e41d2d0300b59300"[18]		# "MF0;rack1-switch1:MSB7700/U1" lid 1 4xEDR
[34]	"S-e41d2d0300b59300"[16]		# "MF0;rack1-switch1:MSB7700/U1" lid 1 4xEDR
[35]	"S-e41d2d0300b59300"[13]		# "MF0;rack1-switch1:MSB7700/U1" lid 1 4xEDR
[36]	"S-e41d2d0300b59300"[17]		# "MF0;rack1-switch1:MSB7700/U1" lid 1 4xEDR

vendid=0x2c9
devid=0xcb20
sysimgguid=0xe41d2d0300bfb980
switchguid=0xe41d2d0300bfb980(e41d2d0300bfb980)
Switch	36 "S-e41d2d0300bfb980"		# "SwitchIB Mellanox Technologies" base port 0 lid 5 lmc 0
[1]	"S-7cfe900300198d20"[16]		# "MF0;rack2-switch2:MSB7700/U1" lid 44 4xEDR
[2]	"S-7cfe900300198d20"[14]		# "MF0;rack2-switch2:MSB7700/U1" lid 44 4xEDR
[3]	"S-7cfe900300198d20"[10]		# "MF0;rack2-switch2:MSB7700/U1" lid 44 4xEDR
[4]	"S-7cfe900300198d20"[5]		# "MF0;rack2-switch2:MSB7700/U1" lid 44 4xEDR
[5]	"S-7cfe900300198d20"[18]		# "MF0;rack2-switch2:MSB7700/U1" lid 44 4xEDR
[6]	"S-7cfe900300198d20"[17]		# "MF0;rack2-switch2:MSB7700/U1" lid 44 4xEDR
[7]	"S-7cfe900300198b00"[34]		# "MF0;rack2-switch1:MSB7700/U1" lid 45 4xEDR
[8]	"S-7cfe900300198b00"[33]		# "MF0;rack2-switch1:MSB7700/U1" lid 45 4xEDR
[9]	"S-7cfe900300198b00"[35]		# "MF0;rack2-switch1:MSB7700/U1" lid 45 4xEDR
[10]	"S-7cfe900300198b00"[31]		# "MF0;rack2-switch1:MSB7700/U1" lid 45 4xEDR
[11]	"S-7cfe900300198b00"[36]		# "MF0;rack2-switch1:MSB7700/U1" lid 45 4xEDR
[12]	"S-7cfe900300198b00"[32]		# "MF0;rack2-switch1:MSB7700/U1" lid 45 4xEDR
[19]	"S-e41d2d0300bfaf40"[11]		# "SwitchIB Mellanox Technologies" lid 10 4xEDR
[20]	"S-e41d2d0300bfaf40"[7]		# "SwitchIB Mellanox Technologies" lid 10 4xEDR
[21]	"S-e41d2d0300bfaf40"[8]		# "SwitchIB Mellanox Technologies" lid 10 4xEDR
[22]	"S-e41d2d0300bfaf40"[9]		# "SwitchIB Mellanox Technologies" lid 10 4xEDR
[23]	"S-e41d2d0300bfaf40"[12]		# "SwitchIB Mellanox Technologies" lid 10 4xEDR
[24]	"S-e41d2d0300bfaf40"[10]		# "SwitchIB Mellanox Technologies" lid 10 4xEDR
[25]	"S-e41d2d0300b13660"[9]		# "MF0;rack1-switch2:MSB7700/U1" lid 91 4xEDR
[26]	"S-e41d2d0300b13660"[11]		# "MF0;rack1-switch2:MSB7700/U1" lid 91 4xEDR
[27]	"S-e41d2d0300b13660"[10]		# "MF0;rack1-switch2:MSB7700/U1" lid 91 4xEDR
[28]	"S-e41d2d0300b13660"[7]		# "MF0;rack1-switch2:MSB7700/U1" lid 91 4xEDR
[29]	"S-e41d2d0300b13660"[12]		# "MF0;rack1-switch2:MSB7700/U1" lid 91 4xEDR
[30]	"S-e41d2d0300b13660"[8]		# "MF0;rack1-switch2:MSB7700/U1" lid 91 4xEDR
[31]	"S-e41d2d0300b59300"[10]		# "MF0;rack1-switch1:MSB7700/U1" lid 1 4xEDR
[32]	"S-e41d2d0300b59300"[7]		# "MF0;rack1-switch1:MSB7700/U1" lid 1 4xEDR
[33]	"S-e41d2d0300b59300"[8]		# "MF0;rack1-switch1:MSB7700/U1" lid 1 4xEDR
[34]	"S-e41d2d0300b59300"[11]		# "MF0;rack1-switch1:MSB7700/U1" lid 1 4xEDR
[35]	"S-e41d2d0300b59300"[12]		# "MF0;rack1-switch1:MSB7700/U1" lid 1 4xEDR
[36]	"S-e41d2d0300b59300"[9]		# "MF0;rack1-switch1:MSB7700/U1" lid 1 4xEDR

vendid=0x2c9
devid=0xcb20
sysimgguid=0xe41d2d0300bfaf60
switchguid=0xe41d2d0300bfaf60(e41d2d0300bfaf60)
Switch	36 "S-e41d2d0300bfaf60"		# "SwitchIB Mellanox Technologies" base port 0 lid 4 lmc 0
[1]	"S-7cfe900300198d20"[6]		# "MF0;rack2-switch2:MSB7700/U1" lid 44 4xEDR
[2]	"S-7cfe900300198d20"[3]		# "MF0;rack2-switch2:MSB7700/U1" lid 44 4xEDR
[3]	"S-7cfe900300198d20"[2]		# "MF0;rack2-switch2:MSB7700/U1" lid 44 4xEDR
[4]	"S-7cfe900300198d20"[13]		# "MF0;rack2-switch2:MSB7700/U1" lid 44 4xEDR
[5]	"S-7cfe900300198d20"[4]		# "MF0;rack2-switch2:MSB7700/U1" lid 44 4xEDR
[6]	"S-7cfe900300198d20"[1]		# "MF0;rack2-switch2:MSB7700/U1" lid 44 4xEDR
[7]	"S-7cfe900300198b00"[28]		# "MF0;rack2-switch1:MSB7700/U1" lid 45 4xEDR
[8]	"S-7cfe900300198b00"[29]		# "MF0;rack2-switch1:MSB7700/U1" lid 45 4xEDR
[9]	"S-7cfe900300198b00"[27]		# "MF0;rack2-switch1:MSB7700/U1" lid 45 4xEDR
[10]	"S-7cfe900300198b00"[30]		# "MF0;rack2-switch1:MSB7700/U1" lid 45 4xEDR
[11]	"S-7cfe900300198b00"[26]		# "MF0;rack2-switch1:MSB7700/U1" lid 45 4xEDR
[12]	"S-7cfe900300198b00"[25]		# "MF0;rack2-switch1:MSB7700/U1" lid 45 4xEDR
[13]	"S-7cfe90030095ff10"[4]		# "MF0;hpc-sb7700-1:MSB7700/U1" lid 29 4xFDR
[15]	"S-7cfe90030095ff10"[8]		# "MF0;hpc-sb7700-1:MSB7700/U1" lid 29 4xFDR
[17]	"S-7cfe90030095ff10"[2]		# "MF0;hpc-sb7700-1:MSB7700/U1" lid 29 4xFDR
[18]	"S-7cfe90030095ff10"[6]		# "MF0;hpc-sb7700-1:MSB7700/U1" lid 29 4xFDR
[19]	"S-e41d2d0300bfaf40"[4]		# "SwitchIB Mellanox Technologies" lid 10 4xEDR
[20]	"S-e41d2d0300bfaf40"[1]		# "SwitchIB Mellanox Technologies" lid 10 4xEDR
[21]	"S-e41d2d0300bfaf40"[5]		# "SwitchIB Mellanox Technologies" lid 10 4xEDR
[22]	"S-e41d2d0300bfaf40"[3]		# "SwitchIB Mellanox Technologies" lid 10 4xEDR
[23]	"S-e41d2d0300bfaf40"[2]		# "SwitchIB Mellanox Technologies" lid 10 4xEDR
[24]	"S-e41d2d0300bfaf40"[6]		# "SwitchIB Mellanox Technologies" lid 10 4xEDR
[25]	"S-e41d2d0300b13660"[2]		# "MF0;rack1-switch2:MSB7700/U1" lid 91 4xEDR
[26]	"S-e41d2d0300b13660"[5]		# "MF0;rack1-switch2:MSB7700/U1" lid 91 4xEDR
[27]	"S-e41d2d0300b13660"[6]		# "MF0;rack1-switch2:MSB7700/U1" lid 91 4xEDR
[28]	"S-e41d2d0300b13660"[1]		# "MF0;rack1-switch2:MSB7700/U1" lid 91 4xEDR
[29]	"S-e41d2d0300b13660"[4]		# "MF0;rack1-switch2:MSB7700/U1" lid 91 4xEDR
[30]	"S-e41d2d0300b13660"[3]		# "MF0;rack1-switch2:MSB7700/U1" lid 91 4xEDR
[31]	"S-e41d2d0300b59300"[5]		# "MF0;rack1-switch1:MSB7700/U1" lid 1 4xEDR
[32]	"S-e41d2d0300b59300"[2]		# "MF0;rack1-switch1:MSB7700/U1" lid 1 4xEDR
[33]	"S-e41d2d0300b59300"[4]		# "MF0;rack1-switch1:MSB7700/U1" lid 1 4xEDR
[34]	"S-e41d2d0300b59300"[1]		# "MF0;rack1-switch1:MSB7700/U1" lid 1 4xEDR
[35]	"S-e41d2d0300b59300"[6]		# "MF0;rack1-switch1:MSB7700/U1" lid 1 4xEDR
[36]	"S-e41d2d0300b59300"[3]		# "MF0;rack1-switch1:MSB7700/U1" lid 1 4xEDR

vendid=0x2c9
devid=0xcb20
sysimgguid=0xe41d2d0300b59300
switchguid=0xe41d2d0300b59300(e41d2d0300b59300)
Switch	36 "S-e41d2d0300b59300"		# "MF0;rack1-switch1:MSB7700/U1" enhanced port 0 lid 1 lmc 0
[1]	"S-e41d2d0300bfaf60"[34]		# "SwitchIB Mellanox Technologies" lid 4 4xEDR
[2]	"S-e41d2d0300bfaf60"[32]		# "SwitchIB Mellanox Technologies" lid 4 4xEDR
[3]	"S-e41d2d0300bfaf60"[36]		# "SwitchIB Mellanox Technologies" lid 4 4xEDR
[4]	"S-e41d2d0300bfaf60"[33]		# "SwitchIB Mellanox Technologies" lid 4 4xEDR
[5]	"S-e41d2d0300bfaf60"[31]		# "SwitchIB Mellanox Technologies" lid 4 4xEDR
[6]	"S-e41d2d0300bfaf60"[35]		# "SwitchIB Mellanox Technologies" lid 4 4xEDR
[7]	"S-e41d2d0300bfb980"[32]		# "SwitchIB Mellanox Technologies" lid 5 4xEDR
[8]	"S-e41d2d0300bfb980"[33]		# "SwitchIB Mellanox Technologies" lid 5 4xEDR
[9]	"S-e41d2d0300bfb980"[36]		# "SwitchIB Mellanox Technologies" lid 5 4xEDR
[10]	"S-e41d2d0300bfb980"[31]		# "SwitchIB Mellanox Technologies" lid 5 4xEDR
[11]	"S-e41d2d0300bfb980"[34]		# "SwitchIB Mellanox Technologies" lid 5 4xEDR
[12]	"S-e41d2d0300bfb980"[35]		# "SwitchIB Mellanox Technologies" lid 5 4xEDR
[13]	"S-e41d2d0300bfb960"[35]		# "SwitchIB Mellanox Technologies" lid 7 4xEDR
[14]	"S-e41d2d0300bfb960"[31]		# "SwitchIB Mellanox Technologies" lid 7 4xEDR
[15]	"S-e41d2d0300bfb960"[32]		# "SwitchIB Mellanox Technologies" lid 7 4xEDR
[16]	"S-e41d2d0300bfb960"[34]		# "SwitchIB Mellanox Technologies" lid 7 4xEDR
[17]	"S-e41d2d0300bfb960"[36]		# "SwitchIB Mellanox Technologies" lid 7 4xEDR
[18]	"S-e41d2d0300bfb960"[33]		# "SwitchIB Mellanox Technologies" lid 7 4xEDR
[19]	"H-e41d2d0300b290d0"[1](e41d2d0300b290d1) 		# "active HCA-1" lid 97 4xFDR
[20]	"S-e41d2d03002238c0"[35]		# "SwitchIB Mellanox Technologies" lid 95 4xEDR
[21]	"H-e41d2d0300b2a280"[1](e41d2d0300b2a281) 		# "passive HCA-1" lid 8 4xFDR
[22]	"S-e41d2d03002238c0"[33]		# "SwitchIB Mellanox Technologies" lid 95 4xEDR
[23]	"H-e41d2d0300b29730"[1](e41d2d0300b29731) 		# "rattler HCA-1" lid 16 4xFDR
[24]	"H-e41d2d0300b92fa0"[1](e41d2d0300b92fa1) 		# "login001 HCA-1" lid 69 4xFDR
[25]	"H-e41d2d0300676b16"[1](e41d2d0300676b16) 		# "node046 HCA-1" lid 12 4xEDR
[26]	"H-e41d2d0300676b02"[1](e41d2d0300676b02) 		# "node048 HCA-1" lid 6 4xEDR
[27]	"H-e41d2d0300ffa5ea"[1](e41d2d0300ffa5ea) 		# "node043 HCA-1" lid 63 4xEDR
[28]	"H-e41d2d0300676ab2"[1](e41d2d0300676ab2) 		# "node045 HCA-1" lid 50 4xEDR
[29]	"H-e41d2d0300675c52"[1](e41d2d0300675c52) 		# "node038 HCA-1" lid 17 4xEDR
[30]	"H-e41d2d030067b7f0"[1](e41d2d030067b7f0) 		# "node042 HCA-1" lid 65 4xEDR
[31]	"H-e41d2d030067dcf8"[1](e41d2d030067dcf8) 		# "node040 HCA-1" lid 67 4xEDR
[32]	"H-e41d2d030067595a"[1](e41d2d030067595a) 		# "node047 HCA-1" lid 19 4xEDR
[33]	"H-e41d2d0300676ac6"[1](e41d2d0300676ac6) 		# "node039 HCA-1" lid 58 4xEDR
[34]	"H-e41d2d03006211a2"[1](e41d2d03006211a2) 		# "node044 HCA-1" lid 46 4xEDR
[35]	"H-e41d2d03006211b6"[1](e41d2d03006211b6) 		# "node037 HCA-1" lid 53 4xEDR
[36]	"H-e41d2d0300ffa512"[1](e41d2d0300ffa512) 		# "node041 HCA-1" lid 11 4xEDR

vendid=0x2c9
devid=0x1003
sysimgguid=0xf45214030070fdd3
caguid=0xf45214030070fdd0
Ca	2 "H-f45214030070fdd0"		# "localhost mlx4_0"
[1](f45214030070fdd1) 	"S-0002c90300704df0"[19]		# lid 81 lmc 0 "SwitchX -  Mellanox Technologies" lid 78 4xFDR10

vendid=0x2c9
devid=0x1003
sysimgguid=0xf452140300710103
caguid=0xf452140300710100
Ca	2 "H-f452140300710100"		# "localhost mlx4_0"
[1](f452140300710101) 	"S-0002c90300704df0"[20]		# lid 93 lmc 0 "SwitchX -  Mellanox Technologies" lid 78 4xFDR10

vendid=0x2c9
devid=0x1003
sysimgguid=0xf452140300710133
caguid=0xf452140300710130
Ca	2 "H-f452140300710130"		# "localhost mlx4_0"
[1](f452140300710131) 	"S-0002c90300704df0"[18]		# lid 92 lmc 0 "SwitchX -  Mellanox Technologies" lid 78 4xFDR10

vendid=0x2c9
devid=0x1003
sysimgguid=0xf45214030070fde3
caguid=0xf45214030070fde0
Ca	2 "H-f45214030070fde0"		# "localhost mlx4_0"
[1](f45214030070fde1) 	"S-0002c90300704df0"[17]		# lid 90 lmc 0 "SwitchX -  Mellanox Technologies" lid 78 4xFDR10

vendid=0x2c9
devid=0x1013
sysimgguid=0x7cfe9003005845e4
caguid=0x7cfe9003005845e4
Ca	1 "H-7cfe9003005845e4"		# "node022 HCA-1"
[1](7cfe9003005845e4) 	"S-e41d2d0300b13660"[36]		# lid 62 lmc 0 "MF0;rack1-switch2:MSB7700/U1" lid 91 4xEDR

vendid=0x2c9
devid=0x1013
sysimgguid=0x7cfe9003005845ac
caguid=0x7cfe9003005845ac
Ca	1 "H-7cfe9003005845ac"		# "node018 HCA-2"
[1](7cfe9003005845ac) 	"S-e41d2d0300b13660"[35]		# lid 2 lmc 0 "MF0;rack1-switch2:MSB7700/U1" lid 91 4xEDR

vendid=0x2c9
devid=0x1013
sysimgguid=0x7cfe900300583f74
caguid=0x7cfe900300583f74
Ca	1 "H-7cfe900300583f74"		# "node024 HCA-1"
[1](7cfe900300583f74) 	"S-e41d2d0300b13660"[34]		# lid 25 lmc 0 "MF0;rack1-switch2:MSB7700/U1" lid 91 4xEDR

vendid=0x2c9
devid=0x1013
sysimgguid=0x7cfe900300583e9c
caguid=0x7cfe900300583e9c
Ca	1 "H-7cfe900300583e9c"		# "node023 HCA-1"
[1](7cfe900300583e9c) 	"S-e41d2d0300b13660"[33]		# lid 42 lmc 0 "MF0;rack1-switch2:MSB7700/U1" lid 91 4xEDR

vendid=0x2c9
devid=0x1013
sysimgguid=0x7cfe9003005845f8
caguid=0x7cfe9003005845f8
Ca	1 "H-7cfe9003005845f8"		# "node026 HCA-1"
[1](7cfe9003005845f8) 	"S-e41d2d0300b13660"[32]		# lid 28 lmc 0 "MF0;rack1-switch2:MSB7700/U1" lid 91 4xEDR

vendid=0x2c9
devid=0x1013
sysimgguid=0x7cfe9003005845a4
caguid=0x7cfe9003005845a4
Ca	1 "H-7cfe9003005845a4"		# "node021 HCA-1"
[1](7cfe9003005845a4) 	"S-e41d2d0300b13660"[31]		# lid 75 lmc 0 "MF0;rack1-switch2:MSB7700/U1" lid 91 4xEDR

vendid=0x2c9
devid=0x1013
sysimgguid=0x7cfe90030058435c
caguid=0x7cfe90030058435c
Ca	1 "H-7cfe90030058435c"		# "node017 HCA-1"
[1](7cfe90030058435c) 	"S-e41d2d0300b13660"[30]		# lid 20 lmc 0 "MF0;rack1-switch2:MSB7700/U1" lid 91 4xEDR

vendid=0x2c9
devid=0x1013
sysimgguid=0x7cfe9003005843dc
caguid=0x7cfe9003005843dc
Ca	1 "H-7cfe9003005843dc"		# "node027 HCA-1"
[1](7cfe9003005843dc) 	"S-e41d2d0300b13660"[29]		# lid 60 lmc 0 "MF0;rack1-switch2:MSB7700/U1" lid 91 4xEDR

vendid=0x2c9
devid=0x1013
sysimgguid=0x7cfe900300584594
caguid=0x7cfe900300584594
Ca	1 "H-7cfe900300584594"		# "node025 HCA-2"
[1](7cfe900300584594) 	"S-e41d2d0300b13660"[28]		# lid 18 lmc 0 "MF0;rack1-switch2:MSB7700/U1" lid 91 4xEDR

vendid=0x2c9
devid=0x1013
sysimgguid=0x7cfe900300584344
caguid=0x7cfe900300584344
Ca	1 "H-7cfe900300584344"		# "node028 HCA-1"
[1](7cfe900300584344) 	"S-e41d2d0300b13660"[27]		# lid 14 lmc 0 "MF0;rack1-switch2:MSB7700/U1" lid 91 4xEDR

vendid=0x2c9
devid=0x1013
sysimgguid=0x7cfe9003005845a8
caguid=0x7cfe9003005845a8
Ca	1 "H-7cfe9003005845a8"		# "node031 HCA-1"
[1](7cfe9003005845a8) 	"S-e41d2d0300b13660"[26]		# lid 48 lmc 0 "MF0;rack1-switch2:MSB7700/U1" lid 91 4xEDR

vendid=0x2c9
devid=0x1013
sysimgguid=0x7cfe9003005843f0
caguid=0x7cfe9003005843f0
Ca	1 "H-7cfe9003005843f0"		# "node030 HCA-1"
[1](7cfe9003005843f0) 	"S-e41d2d0300b13660"[24]		# lid 64 lmc 0 "MF0;rack1-switch2:MSB7700/U1" lid 91 4xEDR

vendid=0x2c9
devid=0x1013
sysimgguid=0x7cfe900300584590
caguid=0x7cfe900300584590
Ca	1 "H-7cfe900300584590"		# "node032 HCA-2"
[1](7cfe900300584590) 	"S-e41d2d0300b13660"[25]		# lid 87 lmc 0 "MF0;rack1-switch2:MSB7700/U1" lid 91 4xEDR

vendid=0x2c9
devid=0x1013
sysimgguid=0xe41d2d030067b7c8
caguid=0xe41d2d030067b7c8
Ca	1 "H-e41d2d030067b7c8"		# "node034 HCA-1"
[1](e41d2d030067b7c8) 	"S-e41d2d0300b13660"[23]		# lid 59 lmc 0 "MF0;rack1-switch2:MSB7700/U1" lid 91 4xEDR

vendid=0x2c9
devid=0x1013
sysimgguid=0xe41d2d030067b7dc
caguid=0xe41d2d030067b7dc
Ca	1 "H-e41d2d030067b7dc"		# "node035 HCA-1"
[1](e41d2d030067b7dc) 	"S-e41d2d0300b13660"[22]		# lid 61 lmc 0 "MF0;rack1-switch2:MSB7700/U1" lid 91 4xEDR

vendid=0x2c9
devid=0x1013
sysimgguid=0xe41d2d0300675c66
caguid=0xe41d2d0300675c66
Ca	1 "H-e41d2d0300675c66"		# "node036 HCA-1"
[1](e41d2d0300675c66) 	"S-e41d2d0300b13660"[21]		# lid 23 lmc 0 "MF0;rack1-switch2:MSB7700/U1" lid 91 4xEDR

vendid=0x2c9
devid=0x1013
sysimgguid=0x7cfe900300584608
caguid=0x7cfe900300584608
Ca	1 "H-7cfe900300584608"		# "node029 HCA-1"
[1](7cfe900300584608) 	"S-e41d2d0300b13660"[20]		# lid 9 lmc 0 "MF0;rack1-switch2:MSB7700/U1" lid 91 4xEDR

vendid=0x2c9
devid=0x1013
sysimgguid=0xe41d2d030062113e
caguid=0xe41d2d030062113e
Ca	1 "H-e41d2d030062113e"		# "node033 HCA-1"
[1](e41d2d030062113e) 	"S-e41d2d0300b13660"[19]		# lid 15 lmc 0 "MF0;rack1-switch2:MSB7700/U1" lid 91 4xEDR

vendid=0x2c9
devid=0x1013
sysimgguid=0x7cfe9003005843d8
caguid=0x7cfe9003005843d8
Ca	1 "H-7cfe9003005843d8"		# "node020 HCA-1"
[1](7cfe9003005843d8) 	"S-e41d2d0300bfaf40"[36]		# lid 52 lmc 0 "SwitchIB Mellanox Technologies" lid 10 4xEDR

vendid=0x2c9
devid=0x1013
sysimgguid=0x7cfe90030058422c
caguid=0x7cfe90030058422c
Ca	1 "H-7cfe90030058422c"		# "node019 HCA-1"
[1](7cfe90030058422c) 	"S-e41d2d0300bfaf40"[35]		# lid 13 lmc 0 "SwitchIB Mellanox Technologies" lid 10 4xEDR

vendid=0x2c9
devid=0x1013
sysimgguid=0x7cfe900300584364
caguid=0x7cfe900300584364
Ca	1 "H-7cfe900300584364"		# "node015 HCA-1"
[1](7cfe900300584364) 	"S-e41d2d0300bfaf40"[33]		# lid 22 lmc 0 "SwitchIB Mellanox Technologies" lid 10 4xEDR

vendid=0x2c9
devid=0x1013
sysimgguid=0x7cfe900300583e74
caguid=0x7cfe900300583e74
Ca	1 "H-7cfe900300583e74"		# "node014 HCA-1"
[1](7cfe900300583e74) 	"S-e41d2d0300bfaf40"[34]		# lid 37 lmc 0 "SwitchIB Mellanox Technologies" lid 10 4xEDR

vendid=0x2c9
devid=0x1013
sysimgguid=0x7cfe90030058425c
caguid=0x7cfe90030058425c
Ca	1 "H-7cfe90030058425c"		# "node013 HCA-1"
[1](7cfe90030058425c) 	"S-e41d2d0300bfaf40"[31]		# lid 43 lmc 0 "SwitchIB Mellanox Technologies" lid 10 4xEDR

vendid=0x2c9
devid=0x1013
sysimgguid=0x7cfe900300584378
caguid=0x7cfe900300584378
Ca	1 "H-7cfe900300584378"		# "node016 HCA-2"
[1](7cfe900300584378) 	"S-e41d2d0300bfaf40"[32]		# lid 89 lmc 0 "SwitchIB Mellanox Technologies" lid 10 4xEDR

vendid=0x2c9
devid=0x1013
sysimgguid=0x7cfe900300583fa8
caguid=0x7cfe900300583fa8
Ca	1 "H-7cfe900300583fa8"		# "node012 HCA-1"
[1](7cfe900300583fa8) 	"S-e41d2d0300bfaf40"[30]		# lid 36 lmc 0 "SwitchIB Mellanox Technologies" lid 10 4xEDR

vendid=0x2c9
devid=0x1013
sysimgguid=0x7cfe9003005842e0
caguid=0x7cfe9003005842e0
Ca	1 "H-7cfe9003005842e0"		# "node010 HCA-1"
[1](7cfe9003005842e0) 	"S-e41d2d0300bfaf40"[29]		# lid 41 lmc 0 "SwitchIB Mellanox Technologies" lid 10 4xEDR

vendid=0x2c9
devid=0x1013
sysimgguid=0x7cfe900300584374
caguid=0x7cfe900300584374
Ca	1 "H-7cfe900300584374"		# "node011 HCA-1"
[1](7cfe900300584374) 	"S-e41d2d0300bfaf40"[28]		# lid 39 lmc 0 "SwitchIB Mellanox Technologies" lid 10 4xEDR

vendid=0x2c9
devid=0x1013
sysimgguid=0x7cfe9003005843e8
caguid=0x7cfe9003005843e8
Ca	1 "H-7cfe9003005843e8"		# "node009 HCA-1"
[1](7cfe9003005843e8) 	"S-e41d2d0300bfaf40"[27]		# lid 33 lmc 0 "SwitchIB Mellanox Technologies" lid 10 4xEDR

vendid=0x2c9
devid=0x1013
sysimgguid=0x7cfe9003005845d0
caguid=0x7cfe9003005845d0
Ca	1 "H-7cfe9003005845d0"		# "node008 HCA-1"
[1](7cfe9003005845d0) 	"S-e41d2d0300bfaf40"[26]		# lid 34 lmc 0 "SwitchIB Mellanox Technologies" lid 10 4xEDR

vendid=0x2c9
devid=0x1013
sysimgguid=0x7cfe900300584598
caguid=0x7cfe900300584598
Ca	1 "H-7cfe900300584598"		# "node005 HCA-1"
[1](7cfe900300584598) 	"S-e41d2d0300bfaf40"[25]		# lid 3 lmc 0 "SwitchIB Mellanox Technologies" lid 10 4xEDR

vendid=0x2c9
devid=0x1013
sysimgguid=0x7cfe9003005845c4
caguid=0x7cfe9003005845c4
Ca	1 "H-7cfe9003005845c4"		# "node007 HCA-1"
[1](7cfe9003005845c4) 	"S-e41d2d0300bfaf40"[24]		# lid 40 lmc 0 "SwitchIB Mellanox Technologies" lid 10 4xEDR

vendid=0x2c9
devid=0x1013
sysimgguid=0x7cfe9003005842b4
caguid=0x7cfe9003005842b4
Ca	1 "H-7cfe9003005842b4"		# "node004 HCA-1"
[1](7cfe9003005842b4) 	"S-e41d2d0300bfaf40"[22]		# lid 38 lmc 0 "SwitchIB Mellanox Technologies" lid 10 4xEDR

vendid=0x2c9
devid=0x1013
sysimgguid=0x7cfe900300584588
caguid=0x7cfe900300584588
Ca	1 "H-7cfe900300584588"		# "node006 HCA-1"
[1](7cfe900300584588) 	"S-e41d2d0300bfaf40"[23]		# lid 31 lmc 0 "SwitchIB Mellanox Technologies" lid 10 4xEDR

vendid=0x2c9
devid=0x1013
sysimgguid=0x7cfe90030058459c
caguid=0x7cfe90030058459c
Ca	1 "H-7cfe90030058459c"		# "node001 HCA-1"
[1](7cfe90030058459c) 	"S-e41d2d0300bfaf40"[21]		# lid 74 lmc 0 "SwitchIB Mellanox Technologies" lid 10 4xEDR

vendid=0x2c9
devid=0x1013
sysimgguid=0x7cfe9003005845fc
caguid=0x7cfe9003005845fc
Ca	1 "H-7cfe9003005845fc"		# "node002 HCA-1"
[1](7cfe9003005845fc) 	"S-e41d2d0300bfaf40"[19]		# lid 47 lmc 0 "SwitchIB Mellanox Technologies" lid 10 4xEDR

vendid=0x2c9
devid=0x1013
sysimgguid=0x7cfe900300584600
caguid=0x7cfe900300584600
Ca	1 "H-7cfe900300584600"		# "node003 HCA-1"
[1](7cfe900300584600) 	"S-e41d2d0300bfaf40"[20]		# lid 35 lmc 0 "SwitchIB Mellanox Technologies" lid 10 4xEDR

vendid=0x2c9
devid=0x1013
sysimgguid=0x7cfe900300584204
caguid=0x7cfe900300584204
Ca	1 "H-7cfe900300584204"		# "ieel3-edr-mds2 HCA-1"
[1](7cfe900300584204) 	"S-7cfe90030095ff10"[31]		# lid 72 lmc 0 "MF0;hpc-sb7700-1:MSB7700/U1" lid 29 4xEDR

vendid=0x2c9
devid=0x1013
sysimgguid=0xe41d2d0300621152
caguid=0xe41d2d0300621152
Ca	1 "H-e41d2d0300621152"		# "ieel3-edr-mds1 HCA-1"
[1](e41d2d0300621152) 	"S-7cfe90030095ff10"[29]		# lid 71 lmc 0 "MF0;hpc-sb7700-1:MSB7700/U1" lid 29 4xEDR

vendid=0x2c9
devid=0x1013
sysimgguid=0xe41d2d0300ffa4c6
caguid=0xe41d2d0300ffa4c6
Ca	1 "H-e41d2d0300ffa4c6"		# "ieel3-edr-oss1 HCA-1"
[1](e41d2d0300ffa4c6) 	"S-7cfe90030095ff10"[27]		# lid 70 lmc 0 "MF0;hpc-sb7700-1:MSB7700/U1" lid 29 4xEDR

vendid=0x2c9
devid=0x1013
sysimgguid=0xe41d2d0300676aee
caguid=0xe41d2d0300676aee
Ca	1 "H-e41d2d0300676aee"		# "ieel3-edr-oss2 HCA-1"
[1](e41d2d0300676aee) 	"S-7cfe90030095ff10"[25]		# lid 73 lmc 0 "MF0;hpc-sb7700-1:MSB7700/U1" lid 29 4xEDR

vendid=0x2c9
devid=0x1013
sysimgguid=0x248a0703001202f4
caguid=0x248a0703001202f4
Ca	1 "H-248a0703001202f4"		# "localhost mlx5_0"
[1](248a0703001202f4) 	"S-7cfe90030095ff10"[18]		# lid 83 lmc 0 "MF0;hpc-sb7700-1:MSB7700/U1" lid 29 4xFDR

vendid=0x2c9
devid=0x1013
sysimgguid=0x248a07030011c430
caguid=0x248a07030011c430
Ca	1 "H-248a07030011c430"		# "localhost mlx5_0"
[1](248a07030011c430) 	"S-7cfe90030095ff10"[16]		# lid 84 lmc 0 "MF0;hpc-sb7700-1:MSB7700/U1" lid 29 4xFDR

vendid=0x2c9
devid=0x1013
sysimgguid=0x248a0703001202f8
caguid=0x248a0703001202f8
Ca	1 "H-248a0703001202f8"		# "localhost mlx5_0"
[1](248a0703001202f8) 	"S-7cfe90030095ff10"[14]		# lid 85 lmc 0 "MF0;hpc-sb7700-1:MSB7700/U1" lid 29 4xFDR

vendid=0x2c9
devid=0x1013
sysimgguid=0xe41d2d0300ffa582
caguid=0xe41d2d0300ffa582
Ca	1 "H-e41d2d0300ffa582"		# "node051 HCA-1"
[1](e41d2d0300ffa582) 	"S-7cfe900300198b00"[18]		# lid 27 lmc 0 "MF0;rack2-switch1:MSB7700/U1" lid 45 4xEDR

vendid=0x2c9
devid=0x1013
sysimgguid=0xe41d2d0300ffa46e
caguid=0xe41d2d0300ffa46e
Ca	1 "H-e41d2d0300ffa46e"		# "node052 HCA-1"
[1](e41d2d0300ffa46e) 	"S-7cfe900300198b00"[17]		# lid 24 lmc 0 "MF0;rack2-switch1:MSB7700/U1" lid 45 4xEDR

vendid=0x2c9
devid=0x1013
sysimgguid=0xe41d2d0300ffa4b2
caguid=0xe41d2d0300ffa4b2
Ca	1 "H-e41d2d0300ffa4b2"		# "node056 HCA-1"
[1](e41d2d0300ffa4b2) 	"S-7cfe900300198b00"[16]		# lid 51 lmc 0 "MF0;rack2-switch1:MSB7700/U1" lid 45 4xEDR

vendid=0x2c9
devid=0x1013
sysimgguid=0xe41d2d0300ffa3fa
caguid=0xe41d2d0300ffa3fa
Ca	1 "H-e41d2d0300ffa3fa"		# "node055 HCA-1"
[1](e41d2d0300ffa3fa) 	"S-7cfe900300198b00"[15]		# lid 68 lmc 0 "MF0;rack2-switch1:MSB7700/U1" lid 45 4xEDR

vendid=0x2c9
devid=0x1013
sysimgguid=0x7cfe900300268828
caguid=0x7cfe900300268828
Ca	1 "H-7cfe900300268828"		# "node060 HCA-1"
[1](7cfe900300268828) 	"S-7cfe900300198b00"[13]		# lid 107 lmc 0 "MF0;rack2-switch1:MSB7700/U1" lid 45 4xEDR

vendid=0x2c9
devid=0x1013
sysimgguid=0x7cfe9003002689a4
caguid=0x7cfe9003002689a4
Ca	1 "H-7cfe9003002689a4"		# "node063 HCA-1"
[1](7cfe9003002689a4) 	"S-7cfe900300198b00"[12]		# lid 110 lmc 0 "MF0;rack2-switch1:MSB7700/U1" lid 45 4xEDR

vendid=0x2c9
devid=0x1013
sysimgguid=0x7cfe9003002689b8
caguid=0x7cfe9003002689b8
Ca	1 "H-7cfe9003002689b8"		# "node064 HCA-1"
[1](7cfe9003002689b8) 	"S-7cfe900300198b00"[11]		# lid 106 lmc 0 "MF0;rack2-switch1:MSB7700/U1" lid 45 4xEDR

vendid=0x2c9
devid=0x1013
sysimgguid=0x7cfe900300269078
caguid=0x7cfe900300269078
Ca	1 "H-7cfe900300269078"		# "node068 HCA-1"
[1](7cfe900300269078) 	"S-7cfe900300198b00"[10]		# lid 109 lmc 0 "MF0;rack2-switch1:MSB7700/U1" lid 45 4xEDR

vendid=0x2c9
devid=0x1013
sysimgguid=0x7cfe9003002690b4
caguid=0x7cfe9003002690b4
Ca	1 "H-7cfe9003002690b4"		# "node083 HCA-1"
[1](7cfe9003002690b4) 	"S-7cfe900300198b00"[8]		# lid 32 lmc 0 "MF0;rack2-switch1:MSB7700/U1" lid 45 4xEDR

vendid=0x2c9
devid=0x1013
sysimgguid=0x7cfe9003002691d8
caguid=0x7cfe9003002691d8
Ca	1 "H-7cfe9003002691d8"		# "node084 HCA-1"
[1](7cfe9003002691d8) 	"S-7cfe900300198b00"[7]		# lid 124 lmc 0 "MF0;rack2-switch1:MSB7700/U1" lid 45 4xEDR

vendid=0x2c9
devid=0x1013
sysimgguid=0x7cfe90030026885c
caguid=0x7cfe90030026885c
Ca	1 "H-7cfe90030026885c"		# "node075 HCA-1"
[1](7cfe90030026885c) 	"S-7cfe900300198b00"[6]		# lid 121 lmc 0 "MF0;rack2-switch1:MSB7700/U1" lid 45 4xEDR

vendid=0x2c9
devid=0x1013
sysimgguid=0x7cfe9003002687f8
caguid=0x7cfe9003002687f8
Ca	1 "H-7cfe9003002687f8"		# "node079 HCA-1"
[1](7cfe9003002687f8) 	"S-7cfe900300198b00"[5]		# lid 119 lmc 0 "MF0;rack2-switch1:MSB7700/U1" lid 45 4xEDR

vendid=0x2c9
devid=0x1013
sysimgguid=0x7cfe900300268a38
caguid=0x7cfe900300268a38
Ca	1 "H-7cfe900300268a38"		# "node072 HCA-1"
[1](7cfe900300268a38) 	"S-7cfe900300198b00"[4]		# lid 123 lmc 0 "MF0;rack2-switch1:MSB7700/U1" lid 45 4xEDR

vendid=0x2c9
devid=0x1013
sysimgguid=0x7cfe900300268810
caguid=0x7cfe900300268810
Ca	1 "H-7cfe900300268810"		# "node076 HCA-1"
[1](7cfe900300268810) 	"S-7cfe900300198b00"[3]		# lid 114 lmc 0 "MF0;rack2-switch1:MSB7700/U1" lid 45 4xEDR

vendid=0x2c9
devid=0x1013
sysimgguid=0x7cfe9003002687fc
caguid=0x7cfe9003002687fc
Ca	1 "H-7cfe9003002687fc"		# "node080 HCA-1"
[1](7cfe9003002687fc) 	"S-7cfe900300198b00"[2]		# lid 118 lmc 0 "MF0;rack2-switch1:MSB7700/U1" lid 45 4xEDR

vendid=0x2c9
devid=0x1013
sysimgguid=0x7cfe900300268998
caguid=0x7cfe900300268998
Ca	1 "H-7cfe900300268998"		# "node071 HCA-1"
[1](7cfe900300268998) 	"S-7cfe900300198b00"[1]		# lid 122 lmc 0 "MF0;rack2-switch1:MSB7700/U1" lid 45 4xEDR

vendid=0x2c9
devid=0x1013
sysimgguid=0xe41d2d0300ffa3f6
caguid=0xe41d2d0300ffa3f6
Ca	1 "H-e41d2d0300ffa3f6"		# "node050 HCA-1"
[1](e41d2d0300ffa3f6) 	"S-7cfe900300198d20"[36]		# lid 66 lmc 0 "MF0;rack2-switch2:MSB7700/U1" lid 44 4xEDR

vendid=0x2c9
devid=0x1013
sysimgguid=0xe41d2d0300ffa45e
caguid=0xe41d2d0300ffa45e
Ca	1 "H-e41d2d0300ffa45e"		# "node049 HCA-1"
[1](e41d2d0300ffa45e) 	"S-7cfe900300198d20"[35]		# lid 21 lmc 0 "MF0;rack2-switch2:MSB7700/U1" lid 44 4xEDR

vendid=0x2c9
devid=0x1013
sysimgguid=0xe41d2d0300ffa4c2
caguid=0xe41d2d0300ffa4c2
Ca	1 "H-e41d2d0300ffa4c2"		# "node054 HCA-1"
[1](e41d2d0300ffa4c2) 	"S-7cfe900300198d20"[34]		# lid 56 lmc 0 "MF0;rack2-switch2:MSB7700/U1" lid 44 4xEDR

vendid=0x2c9
devid=0x1013
sysimgguid=0xe41d2d0300ffa482
caguid=0xe41d2d0300ffa482
Ca	1 "H-e41d2d0300ffa482"		# "node053 HCA-1"
[1](e41d2d0300ffa482) 	"S-7cfe900300198d20"[33]		# lid 26 lmc 0 "MF0;rack2-switch2:MSB7700/U1" lid 44 4xEDR

vendid=0x2c9
devid=0x1013
sysimgguid=0x7cfe9003002689ac
caguid=0x7cfe9003002689ac
Ca	1 "H-7cfe9003002689ac"		# "node058 HCA-1"
[1](7cfe9003002689ac) 	"S-7cfe900300198d20"[32]		# lid 101 lmc 0 "MF0;rack2-switch2:MSB7700/U1" lid 44 4xEDR

vendid=0x2c9
devid=0x1013
sysimgguid=0x7cfe900300268858
caguid=0x7cfe900300268858
Ca	1 "H-7cfe900300268858"		# "node057 HCA-1"
[1](7cfe900300268858) 	"S-7cfe900300198d20"[31]		# lid 100 lmc 0 "MF0;rack2-switch2:MSB7700/U1" lid 44 4xEDR

vendid=0x2c9
devid=0x1013
sysimgguid=0x7cfe900300268990
caguid=0x7cfe900300268990
Ca	1 "H-7cfe900300268990"		# "node070 HCA-1"
[1](7cfe900300268990) 	"S-7cfe900300198d20"[30]		# lid 112 lmc 0 "MF0;rack2-switch2:MSB7700/U1" lid 44 4xEDR

vendid=0x2c9
devid=0x1013
sysimgguid=0x7cfe90030026917c
caguid=0x7cfe90030026917c
Ca	1 "H-7cfe90030026917c"		# "node066 HCA-1"
[1](7cfe90030026917c) 	"S-7cfe900300198d20"[29]		# lid 104 lmc 0 "MF0;rack2-switch2:MSB7700/U1" lid 44 4xEDR

vendid=0x2c9
devid=0x1013
sysimgguid=0x7cfe900300269198
caguid=0x7cfe900300269198
Ca	1 "H-7cfe900300269198"		# "node065 HCA-1"
[1](7cfe900300269198) 	"S-7cfe900300198d20"[28]		# lid 103 lmc 0 "MF0;rack2-switch2:MSB7700/U1" lid 44 4xEDR

vendid=0x2c9
devid=0x1013
sysimgguid=0x7cfe9003002689b4
caguid=0x7cfe9003002689b4
Ca	1 "H-7cfe9003002689b4"		# "node069 HCA-1"
[1](7cfe9003002689b4) 	"S-7cfe900300198d20"[27]		# lid 113 lmc 0 "MF0;rack2-switch2:MSB7700/U1" lid 44 4xEDR

vendid=0x2c9
devid=0x1013
sysimgguid=0x7cfe90030026881c
caguid=0x7cfe90030026881c
Ca	1 "H-7cfe90030026881c"		# "node062 HCA-1"
[1](7cfe90030026881c) 	"S-7cfe900300198d20"[26]		# lid 102 lmc 0 "MF0;rack2-switch2:MSB7700/U1" lid 44 4xEDR

vendid=0x2c9
devid=0x1013
sysimgguid=0x7cfe900300268868
caguid=0x7cfe900300268868
Ca	1 "H-7cfe900300268868"		# "node078 HCA-1"
[1](7cfe900300268868) 	"S-7cfe900300198d20"[25]		# lid 116 lmc 0 "MF0;rack2-switch2:MSB7700/U1" lid 44 4xEDR

vendid=0x2c9
devid=0x1013
sysimgguid=0x7cfe900300268800
caguid=0x7cfe900300268800
Ca	1 "H-7cfe900300268800"		# "node077 HCA-1"
[1](7cfe900300268800) 	"S-7cfe900300198d20"[24]		# lid 120 lmc 0 "MF0;rack2-switch2:MSB7700/U1" lid 44 4xEDR

vendid=0x2c9
devid=0x1013
sysimgguid=0x7cfe9003002688a8
caguid=0x7cfe9003002688a8
Ca	1 "H-7cfe9003002688a8"		# "node061 HCA-1"
[1](7cfe9003002688a8) 	"S-7cfe900300198d20"[23]		# lid 108 lmc 0 "MF0;rack2-switch2:MSB7700/U1" lid 44 4xEDR

vendid=0x2c9
devid=0x1013
sysimgguid=0x7cfe9003002688b8
caguid=0x7cfe9003002688b8
Ca	1 "H-7cfe9003002688b8"		# "node074 HCA-1"
[1](7cfe9003002688b8) 	"S-7cfe900300198d20"[22]		# lid 115 lmc 0 "MF0;rack2-switch2:MSB7700/U1" lid 44 4xEDR

vendid=0x2c9
devid=0x1013
sysimgguid=0x7cfe900300268824
caguid=0x7cfe900300268824
Ca	1 "H-7cfe900300268824"		# "node073 HCA-1"
[1](7cfe900300268824) 	"S-7cfe900300198d20"[21]		# lid 117 lmc 0 "MF0;rack2-switch2:MSB7700/U1" lid 44 4xEDR

vendid=0x2c9
devid=0x1013
sysimgguid=0x7cfe900300268820
caguid=0x7cfe900300268820
Ca	1 "H-7cfe900300268820"		# "node082 HCA-1"
[1](7cfe900300268820) 	"S-7cfe900300198d20"[19]		# lid 125 lmc 0 "MF0;rack2-switch2:MSB7700/U1" lid 44 4xEDR

vendid=0x2c9
devid=0x1013
sysimgguid=0xe41d2d0300ffa53e
caguid=0xe41d2d0300ffa53e
Ca	1 "H-e41d2d0300ffa53e"		# "ieel-mds1 HCA-1"
[1](e41d2d0300ffa53e) 	"S-e41d2d03002238c0"[23]		# lid 49 lmc 0 "SwitchIB Mellanox Technologies" lid 95 4xFDR

vendid=0x2c9
devid=0x1013
sysimgguid=0xe41d2d0300ffa576
caguid=0xe41d2d0300ffa576
Ca	1 "H-e41d2d0300ffa576"		# "ieel-oss2 HCA-1"
[1](e41d2d0300ffa576) 	"S-e41d2d03002238c0"[21]		# lid 57 lmc 0 "SwitchIB Mellanox Technologies" lid 95 4xFDR

vendid=0x2c9
devid=0x1013
sysimgguid=0xe41d2d0300ffa456
caguid=0xe41d2d0300ffa456
Ca	1 "H-e41d2d0300ffa456"		# "ieel-mds2 HCA-1"
[1](e41d2d0300ffa456) 	"S-e41d2d03002238c0"[19]		# lid 54 lmc 0 "SwitchIB Mellanox Technologies" lid 95 4xFDR

vendid=0x2c9
devid=0x1013
sysimgguid=0xe41d2d0300ffa49a
caguid=0xe41d2d0300ffa49a
Ca	1 "H-e41d2d0300ffa49a"		# "ieel-oss1 HCA-1"
[1](e41d2d0300ffa49a) 	"S-e41d2d03002238c0"[17]		# lid 55 lmc 0 "SwitchIB Mellanox Technologies" lid 95 4xFDR

vendid=0x2c9
devid=0x1013
sysimgguid=0xe41d2d0300ffa512
caguid=0xe41d2d0300ffa512
Ca	1 "H-e41d2d0300ffa512"		# "node041 HCA-1"
[1](e41d2d0300ffa512) 	"S-e41d2d0300b59300"[36]		# lid 11 lmc 0 "MF0;rack1-switch1:MSB7700/U1" lid 1 4xEDR

vendid=0x2c9
devid=0x1013
sysimgguid=0xe41d2d03006211b6
caguid=0xe41d2d03006211b6
Ca	1 "H-e41d2d03006211b6"		# "node037 HCA-1"
[1](e41d2d03006211b6) 	"S-e41d2d0300b59300"[35]		# lid 53 lmc 0 "MF0;rack1-switch1:MSB7700/U1" lid 1 4xEDR

vendid=0x2c9
devid=0x1013
sysimgguid=0xe41d2d03006211a2
caguid=0xe41d2d03006211a2
Ca	1 "H-e41d2d03006211a2"		# "node044 HCA-1"
[1](e41d2d03006211a2) 	"S-e41d2d0300b59300"[34]		# lid 46 lmc 0 "MF0;rack1-switch1:MSB7700/U1" lid 1 4xEDR

vendid=0x2c9
devid=0x1013
sysimgguid=0xe41d2d0300676ac6
caguid=0xe41d2d0300676ac6
Ca	1 "H-e41d2d0300676ac6"		# "node039 HCA-1"
[1](e41d2d0300676ac6) 	"S-e41d2d0300b59300"[33]		# lid 58 lmc 0 "MF0;rack1-switch1:MSB7700/U1" lid 1 4xEDR

vendid=0x2c9
devid=0x1013
sysimgguid=0xe41d2d030067595a
caguid=0xe41d2d030067595a
Ca	1 "H-e41d2d030067595a"		# "node047 HCA-1"
[1](e41d2d030067595a) 	"S-e41d2d0300b59300"[32]		# lid 19 lmc 0 "MF0;rack1-switch1:MSB7700/U1" lid 1 4xEDR

vendid=0x2c9
devid=0x1013
sysimgguid=0xe41d2d030067dcf8
caguid=0xe41d2d030067dcf8
Ca	1 "H-e41d2d030067dcf8"		# "node040 HCA-1"
[1](e41d2d030067dcf8) 	"S-e41d2d0300b59300"[31]		# lid 67 lmc 0 "MF0;rack1-switch1:MSB7700/U1" lid 1 4xEDR

vendid=0x2c9
devid=0x1013
sysimgguid=0xe41d2d030067b7f0
caguid=0xe41d2d030067b7f0
Ca	1 "H-e41d2d030067b7f0"		# "node042 HCA-1"
[1](e41d2d030067b7f0) 	"S-e41d2d0300b59300"[30]		# lid 65 lmc 0 "MF0;rack1-switch1:MSB7700/U1" lid 1 4xEDR

vendid=0x2c9
devid=0x1013
sysimgguid=0xe41d2d0300675c52
caguid=0xe41d2d0300675c52
Ca	1 "H-e41d2d0300675c52"		# "node038 HCA-1"
[1](e41d2d0300675c52) 	"S-e41d2d0300b59300"[29]		# lid 17 lmc 0 "MF0;rack1-switch1:MSB7700/U1" lid 1 4xEDR

vendid=0x2c9
devid=0x1013
sysimgguid=0xe41d2d0300676ab2
caguid=0xe41d2d0300676ab2
Ca	1 "H-e41d2d0300676ab2"		# "node045 HCA-1"
[1](e41d2d0300676ab2) 	"S-e41d2d0300b59300"[28]		# lid 50 lmc 0 "MF0;rack1-switch1:MSB7700/U1" lid 1 4xEDR

vendid=0x2c9
devid=0x1013
sysimgguid=0xe41d2d0300ffa5ea
caguid=0xe41d2d0300ffa5ea
Ca	1 "H-e41d2d0300ffa5ea"		# "node043 HCA-1"
[1](e41d2d0300ffa5ea) 	"S-e41d2d0300b59300"[27]		# lid 63 lmc 0 "MF0;rack1-switch1:MSB7700/U1" lid 1 4xEDR

vendid=0x2c9
devid=0x1003
sysimgguid=0xe41d2d0300b29733
caguid=0xe41d2d0300b29730
Ca	1 "H-e41d2d0300b29730"		# "rattler HCA-1"
[1](e41d2d0300b29731) 	"S-e41d2d0300b59300"[23]		# lid 16 lmc 0 "MF0;rack1-switch1:MSB7700/U1" lid 1 4xFDR

vendid=0x2c9
devid=0x1013
sysimgguid=0xe41d2d0300676b02
caguid=0xe41d2d0300676b02
Ca	1 "H-e41d2d0300676b02"		# "node048 HCA-1"
[1](e41d2d0300676b02) 	"S-e41d2d0300b59300"[26]		# lid 6 lmc 0 "MF0;rack1-switch1:MSB7700/U1" lid 1 4xEDR

vendid=0x2c9
devid=0x1013
sysimgguid=0xe41d2d0300676b16
caguid=0xe41d2d0300676b16
Ca	1 "H-e41d2d0300676b16"		# "node046 HCA-1"
[1](e41d2d0300676b16) 	"S-e41d2d0300b59300"[25]		# lid 12 lmc 0 "MF0;rack1-switch1:MSB7700/U1" lid 1 4xEDR

vendid=0x2c9
devid=0x1003
sysimgguid=0xe41d2d0300b2a283
caguid=0xe41d2d0300b2a280
Ca	1 "H-e41d2d0300b2a280"		# "passive HCA-1"
[1](e41d2d0300b2a281) 	"S-e41d2d0300b59300"[21]		# lid 8 lmc 0 "MF0;rack1-switch1:MSB7700/U1" lid 1 4xFDR

vendid=0x2c9
devid=0x1003
sysimgguid=0xe41d2d0300b290d3
caguid=0xe41d2d0300b290d0
Ca	1 "H-e41d2d0300b290d0"		# "active HCA-1"
[1](e41d2d0300b290d1) 	"S-e41d2d0300b59300"[19]		# lid 97 lmc 0 "MF0;rack1-switch1:MSB7700/U1" lid 1 4xFDR

vendid=0x2c9
devid=0x1003
sysimgguid=0xe41d2d0300b92fa3
caguid=0xe41d2d0300b92fa0
Ca	1 "H-e41d2d0300b92fa0"		# "login001 HCA-1"
[1](e41d2d0300b92fa1) 	"S-e41d2d0300b59300"[24]		# lid 69 lmc 0 "MF0;rack1-switch1:MSB7700/U1" lid 1 4xFDR
